…
En fait la majorité du plasmide pKNOCK-Km qu'on utilise a une région homologue
au génome receveur. Donc on va tester avec un plasmide pKNOCK-Tet, qui introduit
une résistance à la tétracycline au lieu de la kanamycine, et qui ne présente
qu'une homologie de 300bp.

Si on obtient des transformants avec ce simple plasmide (sans insert), on doit
changer de stratégie. Sinon, on peut repartir sur la stratégie de base avec une
insertion simple.

**Chez _H.pylori_**, on dispose désormais de la table suivante :

```
> df
# A tibble: 4,329,658 × 11
     pos                    id   ref   alt filter receiver donor sample    gt      exp  type
   <int>                 <chr> <chr> <chr>  <chr>    <int> <int>  <chr> <int>    <chr> <chr>
1    346 TAGGGTTTTG.CGTGGGCGTG     C     T   PASS        0     1   FLKJ     0 BAC555-8   bac
2    439 TTAAATGCGG.CTCGATGAGG     C     T   PASS        0     1   FLKJ     0 BAC555-8   bac
3    448 GCTCGATGAG.GGCGTCAATT     G     A   PASS        0     1   FLKJ     0 BAC555-8   bac
4    457 GGGCGTCAAT.TTCATTGATT     T     C   PASS        0     1   FLKJ     0 BAC555-8   bac
5    508 CGAAAGCGAG.TTGGTTGTTT     T     C   PASS        0     1   FLKJ     0 BAC555-8   bac
6    544 CTAACATGCT.AGAAGCGATT     A     G   PASS        0     1   FLKJ     0 BAC555-8   bac
7    639 GCCATTTTAA.CCCTTGAGAG     C     T   PASS        0     1   FLKJ     0 BAC555-8   bac
8    665 ACAAGCTCAA.CAATTCAATG     C     T   PASS        0     1   FLKJ     0 BAC555-8   bac
9    704 AGCCCTTATT.GCCGGCTTTA     G     A   PASS        0     1   FLKJ     0 BAC555-8   bac
10   749 CAATATTGTC.CGTGGTCAGC     C     T   PASS        0     1   FLKJ     0 BAC555-8   bac
# ... with 4,329,648 more rows
```
…
